<?xml version="1.0" encoding="UTF-8"?>

<svg version="1.2" baseProfile="tiny" width="88.9mm" height="114.3mm" viewBox="0 0 8890 11430" preserveAspectRatio="xMidYMid" fill-rule="evenodd" stroke-width="28.222" stroke-linejoin="round" xmlns="http://www.w3.org/2000/svg" xmlns:xlink="http://www.w3.org/1999/xlink" xml:space="preserve">
 <defs>
  <font id="EmbeddedFont_1" horiz-adv-x="2048">
   <font-face font-family="Arial Rounded MT Bold embedded" units-per-em="2048" font-weight="normal" font-style="normal" ascent="1931" descent="423"/>
   <missing-glyph horiz-adv-x="2048" d="M 0,0 L 2047,0 2047,2047 0,2047 0,0 Z"/>
   <glyph unicode="V" horiz-adv-x="1271" d="M 377,1296 L 709,313 1042,1303 C 1059,1355 1072,1391 1081,1412 1090,1432 1104,1450 1124,1467 1144,1483 1171,1491 1206,1491 1231,1491 1255,1485 1277,1472 1298,1459 1315,1443 1328,1422 1340,1401 1346,1379 1346,1358 1346,1343 1344,1328 1340,1311 1336,1294 1331,1277 1325,1261 1319,1244 1313,1227 1307,1210 L 952,252 C 939,215 927,181 914,148 901,115 887,86 870,61 853,36 831,15 804,-1 776,-17 742,-25 702,-25 662,-25 628,-17 601,-1 573,14 551,35 534,61 517,86 502,115 489,148 476,181 464,215 451,252 L 102,1202 C 96,1219 90,1236 84,1253 77,1270 72,1288 68,1307 63,1326 61,1343 61,1356 61,1390 75,1421 102,1449 129,1477 164,1491 205,1491 256,1491 292,1476 313,1445 334,1414 355,1364 377,1296 Z"/>
   <glyph unicode="T" horiz-adv-x="1245" d="M 1112,1221 L 788,1221 788,156 C 788,95 774,49 747,20 720,-10 684,-25 641,-25 597,-25 561,-10 534,20 506,50 492,95 492,156 L 492,1221 168,1221 C 117,1221 80,1232 55,1255 30,1277 18,1306 18,1343 18,1381 31,1411 57,1433 82,1455 119,1466 168,1466 L 1112,1466 C 1163,1466 1202,1455 1227,1432 1252,1409 1264,1380 1264,1343 1264,1306 1251,1277 1226,1255 1201,1232 1163,1221 1112,1221 Z"/>
   <glyph unicode="O" horiz-adv-x="1430" d="M 805,1491 C 957,1491 1088,1460 1197,1399 1306,1337 1388,1249 1444,1136 1500,1022 1528,888 1528,735 1528,622 1513,519 1482,426 1451,333 1405,253 1344,185 1283,117 1207,65 1118,29 1029,-7 926,-25 811,-25 696,-25 594,-6 503,31 412,68 337,120 276,187 215,254 170,335 139,430 108,525 92,627 92,737 92,850 108,953 141,1047 173,1141 220,1221 281,1287 342,1353 417,1404 505,1439 593,1474 693,1491 805,1491 Z M 1227,737 C 1227,844 1210,937 1175,1016 1140,1095 1091,1154 1027,1195 962,1235 888,1255 805,1255 746,1255 691,1244 641,1222 590,1199 547,1167 511,1124 474,1081 446,1027 425,961 404,894 393,820 393,737 393,654 404,578 425,511 446,444 475,388 514,344 552,299 596,266 646,244 695,222 750,211 809,211 885,211 955,230 1019,268 1082,306 1133,365 1171,444 1208,523 1227,621 1227,737 Z"/>
   <glyph unicode="E" horiz-adv-x="1112" d="M 1126,1237 L 457,1237 457,877 1073,877 C 1118,877 1152,867 1175,847 1197,826 1208,799 1208,766 1208,733 1197,706 1175,685 1153,664 1119,653 1073,653 L 457,653 457,236 1149,236 C 1196,236 1231,225 1255,204 1278,182 1290,153 1290,117 1290,82 1278,54 1255,33 1231,11 1196,0 1149,0 L 342,0 C 277,0 231,14 203,43 174,72 160,118 160,182 L 160,1284 C 160,1327 166,1362 179,1389 192,1416 212,1435 239,1448 266,1460 300,1466 342,1466 L 1126,1466 C 1173,1466 1209,1456 1232,1435 1255,1414 1266,1386 1266,1352 1266,1317 1255,1290 1232,1269 1209,1248 1173,1237 1126,1237 Z"/>
   <glyph unicode="C" horiz-adv-x="1298" d="M 1409,463 C 1409,416 1398,366 1375,312 1352,257 1315,204 1266,152 1217,99 1154,57 1077,24 1000,-9 911,-25 809,-25 732,-25 661,-18 598,-3 535,12 477,35 426,66 374,97 326,137 283,188 244,234 211,286 184,343 157,400 136,460 123,525 109,590 102,658 102,731 102,849 119,955 154,1048 188,1141 237,1221 301,1288 365,1354 440,1404 526,1439 612,1474 704,1491 801,1491 920,1491 1025,1467 1118,1420 1211,1373 1282,1314 1331,1245 1380,1175 1405,1109 1405,1047 1405,1013 1393,983 1369,957 1345,931 1316,918 1282,918 1244,918 1216,927 1197,945 1178,963 1156,994 1133,1038 1094,1111 1049,1165 997,1201 944,1237 880,1255 803,1255 681,1255 584,1209 512,1116 439,1023 403,892 403,721 403,607 419,512 451,437 483,361 528,304 587,267 646,230 714,211 793,211 878,211 951,232 1010,275 1069,317 1113,379 1143,461 1156,500 1171,531 1190,556 1209,580 1239,592 1280,592 1315,592 1346,580 1371,555 1396,530 1409,500 1409,463 Z"/>
   <glyph unicode="A" horiz-adv-x="1351" d="M 1098,166 L 1028,350 432,350 362,162 C 335,89 311,39 292,14 273,-12 241,-25 197,-25 160,-25 127,-11 98,16 69,43 55,74 55,109 55,129 58,150 65,171 72,192 83,222 98,260 L 473,1212 C 484,1239 497,1272 512,1311 527,1349 543,1381 560,1406 577,1431 599,1452 627,1468 654,1483 688,1491 729,1491 770,1491 805,1483 833,1468 860,1452 883,1432 900,1407 917,1382 931,1356 943,1328 954,1299 969,1261 987,1214 L 1370,268 C 1400,196 1415,144 1415,111 1415,77 1401,46 1373,18 1344,-11 1310,-25 1270,-25 1247,-25 1227,-21 1210,-12 1193,-4 1179,7 1168,22 1157,36 1145,58 1132,88 1119,117 1107,143 1098,166 Z M 510,573 L 948,573 727,1178 510,573 Z"/>
  </font>
 </defs>
 <g visibility="visible" id="MasterSlide_1_Default">
  <desc>Master slide
  </desc>
  <rect fill="none" stroke="none" x="0" y="0" width="8890" height="11430"/>
 </g>
 <g visibility="visible" id="Slide_1_page1">
  <g>
   <path fill="rgb(255,0,0)" stroke="none" d="M 4349,5471 C 4197,5471 4067,5436 3936,5360 3804,5284 3710,5190 3634,5058 3558,4926 3523,4797 3523,4645 3523,4493 3558,4364 3634,4232 3710,4100 3804,4006 3936,3930 4067,3854 4197,3819 4349,3819 4500,3819 4630,3854 4761,3930 4893,4006 4987,4100 5063,4232 5139,4364 5174,4493 5174,4645 5174,4797 5139,4926 5063,5058 4987,5190 4893,5284 4761,5360 4630,5436 4500,5471 4349,5471 L 4349,5471 Z"/>
   <path fill="none" stroke="rgb(128,128,128)" id="Drawing_1_0" stroke-linejoin="round" d="M 4349,5471 C 4197,5471 4067,5436 3936,5360 3804,5284 3710,5190 3634,5058 3558,4926 3523,4797 3523,4645 3523,4493 3558,4364 3634,4232 3710,4100 3804,4006 3936,3930 4067,3854 4197,3819 4349,3819 4500,3819 4630,3854 4761,3930 4893,4006 4987,4100 5063,4232 5139,4364 5174,4493 5174,4645 5174,4797 5139,4926 5063,5058 4987,5190 4893,5284 4761,5360 4630,5436 4500,5471 4349,5471 L 4349,5471 Z"/>
  </g>
  <g>
   <path fill="rgb(255,0,0)" stroke="none" d="M 6050,5471 C 5898,5471 5768,5436 5637,5360 5505,5284 5411,5190 5335,5058 5259,4926 5224,4797 5224,4645 5224,4493 5259,4364 5335,4232 5411,4100 5505,4006 5637,3930 5768,3854 5898,3819 6050,3819 6201,3819 6331,3854 6462,3930 6594,4006 6688,4100 6764,4232 6840,4364 6875,4493 6875,4645 6875,4797 6840,4926 6764,5058 6688,5190 6594,5284 6462,5360 6331,5436 6201,5471 6050,5471 L 6050,5471 Z"/>
   <path fill="none" stroke="rgb(128,128,128)" id="Drawing_2_0" stroke-linejoin="round" d="M 6050,5471 C 5898,5471 5768,5436 5637,5360 5505,5284 5411,5190 5335,5058 5259,4926 5224,4797 5224,4645 5224,4493 5259,4364 5335,4232 5411,4100 5505,4006 5637,3930 5768,3854 5898,3819 6050,3819 6201,3819 6331,3854 6462,3930 6594,4006 6688,4100 6764,4232 6840,4364 6875,4493 6875,4645 6875,4797 6840,4926 6764,5058 6688,5190 6594,5284 6462,5360 6331,5436 6201,5471 6050,5471 L 6050,5471 Z"/>
  </g>
  <g>
   <path fill="rgb(255,0,0)" stroke="none" d="M 2650,5471 C 2498,5471 2368,5436 2237,5360 2105,5284 2011,5190 1935,5058 1859,4926 1824,4797 1824,4645 1824,4493 1859,4364 1935,4232 2011,4100 2105,4006 2237,3930 2368,3854 2498,3819 2649,3819 2801,3819 2931,3854 3062,3930 3194,4006 3288,4100 3364,4232 3440,4364 3475,4493 3475,4645 3475,4797 3440,4926 3364,5058 3288,5190 3194,5284 3062,5360 2931,5436 2801,5471 2650,5471 L 2650,5471 Z"/>
   <path fill="none" stroke="rgb(128,128,128)" id="Drawing_3_0" stroke-linejoin="round" d="M 2650,5471 C 2498,5471 2368,5436 2237,5360 2105,5284 2011,5190 1935,5058 1859,4926 1824,4797 1824,4645 1824,4493 1859,4364 1935,4232 2011,4100 2105,4006 2237,3930 2368,3854 2498,3819 2649,3819 2801,3819 2931,3854 3062,3930 3194,4006 3288,4100 3364,4232 3440,4364 3475,4493 3475,4645 3475,4797 3440,4926 3364,5058 3288,5190 3194,5284 3062,5360 2931,5436 2801,5471 2650,5471 L 2650,5471 Z"/>
  </g>
  <g>
   <path fill="rgb(255,0,0)" stroke="none" d="M 3451,6971 C 3299,6971 3169,6936 3038,6860 2906,6784 2812,6690 2736,6558 2660,6426 2625,6297 2625,6145 2625,5993 2660,5864 2736,5732 2812,5600 2906,5506 3038,5430 3169,5354 3299,5319 3450,5319 3602,5319 3732,5354 3863,5430 3995,5506 4089,5600 4165,5732 4241,5864 4276,5993 4276,6145 4276,6297 4241,6426 4165,6558 4089,6690 3995,6784 3863,6860 3732,6936 3602,6971 3451,6971 L 3451,6971 Z"/>
   <path fill="none" stroke="rgb(128,128,128)" id="Drawing_4_0" stroke-linejoin="round" d="M 3451,6971 C 3299,6971 3169,6936 3038,6860 2906,6784 2812,6690 2736,6558 2660,6426 2625,6297 2625,6145 2625,5993 2660,5864 2736,5732 2812,5600 2906,5506 3038,5430 3169,5354 3299,5319 3450,5319 3602,5319 3732,5354 3863,5430 3995,5506 4089,5600 4165,5732 4241,5864 4276,5993 4276,6145 4276,6297 4241,6426 4165,6558 4089,6690 3995,6784 3863,6860 3732,6936 3602,6971 3451,6971 L 3451,6971 Z"/>
  </g>
  <g>
   <path fill="rgb(255,0,0)" stroke="none" d="M 5251,6971 C 5099,6971 4969,6936 4838,6860 4706,6784 4612,6690 4536,6558 4460,6426 4425,6297 4425,6145 4425,5993 4460,5864 4536,5732 4612,5600 4706,5506 4838,5430 4969,5354 5099,5319 5251,5319 5402,5319 5532,5354 5663,5430 5795,5506 5889,5600 5965,5732 6041,5864 6076,5993 6076,6145 6076,6297 6041,6426 5965,6558 5889,6690 5795,6784 5663,6860 5532,6936 5402,6971 5251,6971 L 5251,6971 Z"/>
   <path fill="none" stroke="rgb(128,128,128)" id="Drawing_5_0" stroke-linejoin="round" d="M 5251,6971 C 5099,6971 4969,6936 4838,6860 4706,6784 4612,6690 4536,6558 4460,6426 4425,6297 4425,6145 4425,5993 4460,5864 4536,5732 4612,5600 4706,5506 4838,5430 4969,5354 5099,5319 5251,5319 5402,5319 5532,5354 5663,5430 5795,5506 5889,5600 5965,5732 6041,5864 6076,5993 6076,6145 6076,6297 6041,6426 5965,6558 5889,6690 5795,6784 5663,6860 5532,6936 5402,6971 5251,6971 L 5251,6971 Z"/>
  </g>
  <g>
   <path fill="rgb(255,0,0)" stroke="none" d="M 4351,8471 C 4199,8471 4069,8436 3938,8360 3806,8284 3712,8190 3636,8058 3560,7926 3525,7797 3525,7645 3525,7493 3560,7364 3636,7232 3712,7100 3806,7006 3938,6930 4069,6854 4199,6819 4351,6819 4502,6819 4632,6854 4763,6930 4895,7006 4989,7100 5065,7232 5141,7364 5176,7493 5176,7645 5176,7797 5141,7926 5065,8058 4989,8190 4895,8284 4763,8360 4632,8436 4502,8471 4351,8471 L 4351,8471 Z"/>
   <path fill="none" stroke="rgb(128,128,128)" id="Drawing_6_0" stroke-linejoin="round" d="M 4351,8471 C 4199,8471 4069,8436 3938,8360 3806,8284 3712,8190 3636,8058 3560,7926 3525,7797 3525,7645 3525,7493 3560,7364 3636,7232 3712,7100 3806,7006 3938,6930 4069,6854 4199,6819 4351,6819 4502,6819 4632,6854 4763,6930 4895,7006 4989,7100 5065,7232 5141,7364 5176,7493 5176,7645 5176,7797 5141,7926 5065,8058 4989,8190 4895,8284 4763,8360 4632,8436 4502,8471 4351,8471 L 4351,8471 Z"/>
  </g>
  <g>
   <path fill="rgb(0,153,0)" stroke="none" d="M 2557,331 L 4349,3773 1526,1824 2557,331 2557,331 Z"/>
   <path fill="none" stroke="rgb(128,128,128)" id="Drawing_7_0" stroke-linejoin="round" d="M 2557,331 L 4349,3773 1526,1824 2557,331 2557,331 Z"/>
   <rect fill="none" stroke="none" x="1527" y="333" width="3854" height="3441"/>
  </g>
  <g>
   <path fill="rgb(0,153,0)" stroke="none" d="M 6170,342 L 4378,3784 7201,1835 6170,342 6170,342 Z"/>
   <path fill="none" stroke="rgb(128,128,128)" id="Drawing_8_0" stroke-linejoin="round" d="M 6170,342 L 4378,3784 7201,1835 6170,342 6170,342 Z"/>
   <rect fill="none" stroke="none" x="3348" y="343" width="3854" height="3441"/>
  </g>
  <g id="Drawing_9">
   <rect fill="none" stroke="none" x="422" y="8825" width="7480" height="2212"/>
   <g fill="rgb(0,0,0)" stroke="none" font-family="Arial Rounded MT Bold embedded" font-size="1693" font-style="normal" font-weight="400">
    <text x="672" y="10554">
     <tspan x="672 2014 3267 4220 5354 6518">OCTAVE</tspan></text>
   </g>
  </g>
  <g>
   <path fill="none" stroke="rgb(255,102,0)" id="Drawing_10_0" stroke-width="106" stroke-linejoin="round" d="M 408,9179 L 8409,9179"/>
  </g>
  <g>
   <path fill="none" stroke="rgb(255,102,0)" id="Drawing_11_0" stroke-width="106" stroke-linejoin="round" d="M 408,10730 L 8409,10730"/>
  </g>
 </g>
</svg>